{
    "segments": {
        "right": [
            {
                "function": "powerline.segments.common.net.network_load",
                "priority": 50,
                "args": {
                    "recv_format": "⬇ {value:>8}",
                    "sent_format": " ⬆ {value:>8}"
                }
            },
            {
                "function": "powerline.segments.common.sys.system_load",
                "priority": 50
            },
            {
                "function":"powerline.segments.common.sys.cpu_load_percent",
                "priority": 25,
                "args": {
                    "interval": 2,
                    "format":"{0:.0f}%"
                }
            },
            {
                "function": "powerline.segments.common.bat.battery",
                "priority": 25
            },
            {
                "function": "powerline.segments.common.time.date",
                "before": ""
            },
            {
                "function": "powerline.segments.common.time.date",
                "before": "",
                "args": {
                    "format": "%H:%M",
                    "istime": true
                }
            },
            {
                "function": "powerline.segments.common.net.hostname",
                "args": {
                    "exclude_domain": true
                }
            }
        ]
    }
}
